[gd_scene load_steps=4 format=2]

[ext_resource path="res://skelentities/crusher/crusher.gd" type="Script" id=1]
[ext_resource path="res://skelentities/crusher/crusher.png" type="Texture" id=2]

[sub_resource type="RectangleShape2D" id=1]

custom_solver_bias = 0.0
extents = Vector2( 2, 26 )

[node name="crusher" type="Container"]

anchor_left = 0.0
anchor_top = 0.0
anchor_right = 0.0
anchor_bottom = 0.0
margin_right = 4.0
margin_bottom = 52.0
rect_pivot_offset = Vector2( 0, 0 )
rect_clip_content = true
mouse_filter = 0
mouse_default_cursor_shape = 0
size_flags_horizontal = 1
size_flags_vertical = 1
script = ExtResource( 1 )
_sections_unfolded = [ "Rect" ]

[node name="sprite" type="Sprite" parent="." index="0"]

texture = ExtResource( 2 )
centered = false
_sections_unfolded = [ "Offset" ]

[node name="detector" type="Area2D" parent="." index="1"]

input_pickable = true
gravity_vec = Vector2( 0, 1 )
gravity = 98.0
linear_damp = 0.1
angular_damp = 1.0
audio_bus_override = false
audio_bus_name = "Master"
_sections_unfolded = [ "Transform" ]

[node name="shape" type="CollisionShape2D" parent="detector" index="0"]

position = Vector2( 2, 26 )
shape = SubResource( 1 )
_sections_unfolded = [ "Transform" ]

[node name="tween" type="Tween" parent="." index="2"]

repeat = false
playback_process_mode = 1
playback_speed = 1.0
playback/active = false
playback/repeat = false
playback/speed = 1.0


